<svg width="70" height="70" viewBox="0 0 70 70" fill="none" xmlns="http://www.w3.org/2000/svg">
<g clip-path="url(#clip0)">
<path d="M28.0875 28.4781C30.675 27.9991 32.6409 25.7256 32.6409 23.0013C32.6409 19.93 30.1421 17.4316 27.0707 17.4316H26.7203C23.8423 17.4316 21.501 19.773 21.501 22.6515C21.501 23.4062 22.113 24.0187 22.8682 24.0187C23.6233 24.0187 24.2354 23.4062 24.2354 22.6515C24.2354 21.2811 25.3499 20.166 26.7203 20.166H27.0707C28.6344 20.166 29.9065 21.4382 29.9065 23.0013C29.9065 24.5651 28.6344 25.8367 27.0707 25.8367C26.1238 25.8367 25.3531 26.6073 25.3531 27.5542V30.2261C25.3531 30.9813 25.9657 31.5933 26.7203 31.5933C27.4755 31.5933 28.0875 30.9813 28.0875 30.2261V28.4781Z" fill="#EFAF84"/>
<path d="M26.7188 34.248C26.3593 34.248 26.0069 34.3944 25.7521 34.6486C25.4979 34.9033 25.3516 35.2558 25.3516 35.6152C25.3516 35.9752 25.4979 36.3277 25.7521 36.5819C26.0079 36.8361 26.3593 36.9824 26.7188 36.9824C27.0798 36.9824 27.4312 36.8361 27.6854 36.5819C27.9412 36.3277 28.086 35.9752 28.086 35.6152C28.086 35.2558 27.9412 34.9033 27.6854 34.6486C27.4312 34.3944 27.0798 34.248 26.7188 34.248Z" fill="#EFAF84"/>
<path d="M15.1865 38.9114C14.6567 38.3736 13.791 38.3672 13.2532 38.8975C12.7154 39.4273 12.709 40.293 13.2393 40.8308L13.3424 40.935C13.6094 41.202 13.9593 41.3355 14.3091 41.3355C14.6589 41.3355 15.0092 41.202 15.2757 40.935C15.8098 40.4009 15.8098 39.5352 15.2757 39.0017L15.1865 38.9114Z" fill="#EFAF84"/>
<path d="M40.7985 13.4792C33.2287 5.90994 20.9122 5.90994 13.3424 13.4792C7.47473 19.3469 5.98204 28.2945 9.62806 35.7431C9.95971 36.4213 10.779 36.7022 11.4572 36.37C12.1355 36.0384 12.4159 35.2191 12.0842 34.5409C8.95141 28.1412 10.2348 20.4545 15.2763 15.413C21.7795 8.90975 32.3614 8.90922 38.8652 15.413C45.3684 21.9162 45.3684 32.4981 38.8652 39.0019C33.931 43.9361 26.3655 45.2771 20.0401 42.3382C19.3554 42.0204 18.5421 42.3173 18.2238 43.0025C17.906 43.6872 18.2035 44.5 18.8881 44.8183C21.4901 46.0269 24.2709 46.6133 27.0341 46.6133C32.0906 46.6133 37.0851 44.6485 40.7985 40.9352C48.3682 33.3654 48.3682 21.0489 40.7985 13.4792Z" fill="#EFAF84"/>
<path d="M68.7992 60.1755L50.0783 41.4545C52.6519 37.3134 54.1414 32.4311 54.1414 27.2069C54.1414 12.2799 41.9974 0.136475 27.0704 0.136475C12.144 0.136475 0 12.2805 0 27.2069C0 42.1339 12.144 54.2773 27.0704 54.2773C32.2946 54.2773 37.1764 52.7884 41.317 50.2153L60.0379 68.9362C60.838 69.7357 61.8879 70.1357 62.9384 70.1357C63.9889 70.1357 65.0389 69.7357 65.8389 68.9362L68.7986 65.9759C69.5736 65.2015 69.9997 64.1713 69.9997 63.076C70.0003 61.9801 69.5736 60.9504 68.7992 60.1755ZM2.73439 27.2069C2.73439 13.7881 13.6516 2.87086 27.0704 2.87086C40.4897 2.87086 51.407 13.7881 51.407 27.2069C51.407 40.6257 40.4897 51.5429 27.0704 51.5429C13.6516 51.5429 2.73439 40.6262 2.73439 27.2069ZM48.4932 43.7366L51.5191 46.7626L46.6256 51.6567L43.599 48.6302C45.4309 47.2138 47.0763 45.5684 48.4932 43.7366ZM66.8653 64.0426L63.9051 67.0029C63.3721 67.5359 62.5048 67.5359 61.9718 67.0029L48.5588 53.59L53.4524 48.6964L66.8653 62.1093C67.1233 62.3673 67.2659 62.7107 67.2659 63.076C67.2659 63.4412 67.1238 63.7841 66.8653 64.0426Z" fill="#EFAF84"/>
</g>
<defs>
<clipPath id="clip0">
<rect width="70" height="70" fill="white"/>
</clipPath>
</defs>
</svg>
